[gd_scene load_steps=3 format=2]

[ext_resource path="res://scenes/World.tscn" type="PackedScene" id=1]
[ext_resource path="res://scenes/Wall.tscn" type="PackedScene" id=2]

[node name="World" instance=ExtResource( 1 )]

[node name="Wall" parent="." index="3" instance=ExtResource( 2 )]
position = Vector2( 824, 135 )
rotation = -2.44582
scale = Vector2( 5.48098, 1.02012 )

[node name="Wall2" parent="." index="4" instance=ExtResource( 2 )]
position = Vector2( 319, 298 )
scale = Vector2( 10.0209, 2.44717 )

[node name="Wall3" parent="." index="5" instance=ExtResource( 2 )]
position = Vector2( 608, 432 )
scale = Vector2( 1, 5.2 )
constant_linear_velocity = Vector2( 0.5, 0 )

[node name="Wall4" parent="." index="6" instance=ExtResource( 2 )]
position = Vector2( 900, 473 )
rotation = 0.817325
scale = Vector2( 1.26774, 5.06574 )
