[gd_scene load_steps=8 format=2]

[ext_resource path="res://art/Particle.png" type="Texture" id=1]
[ext_resource path="res://src/Particle.gd" type="Script" id=2]
[ext_resource path="res://art/Wave.png" type="Texture" id=3]
[ext_resource path="res://art/bounce.ogg" type="AudioStream" id=4]
[ext_resource path="res://art/switch.ogg" type="AudioStream" id=5]

[sub_resource type="CircleShape2D" id=2]
radius = 4.0

[sub_resource type="CircleShape2D" id=1]
radius = 8.0

[node name="Particle" type="KinematicBody2D"]
script = ExtResource( 2 )
initialVel = Vector2( 500, 0 )

[node name="ParticleSprite" type="Sprite" parent="."]
scale = Vector2( 0.25, 0.25 )
texture = ExtResource( 1 )

[node name="WaveSprite" type="Sprite" parent="."]
position = Vector2( -63, 1 )
texture = ExtResource( 3 )

[node name="WaveCol" type="CollisionShape2D" parent="."]
position = Vector2( -125, 0 )
shape = SubResource( 2 )

[node name="ParticleCol" type="CollisionShape2D" parent="."]
shape = SubResource( 1 )

[node name="WaveTimer" type="Timer" parent="."]
one_shot = true

[node name="ParticleCam" type="Camera2D" parent="."]
current = true
smoothing_enabled = true

[node name="BounceCount" type="Label" parent="ParticleCam"]
margin_left = 13.0
margin_top = -35.0
margin_right = 53.0
margin_bottom = -21.0
custom_colors/font_color = Color( 0, 0, 0, 1 )
text = "0"
__meta__ = {
"_edit_use_anchors_": false
}

[node name="BounceSound" type="AudioStreamPlayer" parent="."]
stream = ExtResource( 4 )

[node name="SwitchSound" type="AudioStreamPlayer" parent="."]
stream = ExtResource( 5 )

[connection signal="died" from="." to="." method="_on_Particle_died"]
[connection signal="won" from="." to="." method="_on_refire"]
[connection signal="timeout" from="WaveTimer" to="." method="_on_WaveTimer_timeout"]
