[gd_scene load_steps=9 format=2]

[ext_resource path="res://src/World.gd" type="Script" id=1]
[ext_resource path="res://art/Background.png" type="Texture" id=2]
[ext_resource path="res://art/level-start.ogg" type="AudioStream" id=3]
[ext_resource path="res://scenes/Gun.tscn" type="PackedScene" id=4]
[ext_resource path="res://art/die.ogg" type="AudioStream" id=5]
[ext_resource path="res://scenes/Electron.tscn" type="PackedScene" id=6]
[ext_resource path="res://art/win.ogg" type="AudioStream" id=7]
[ext_resource path="res://art/fire.ogg" type="AudioStream" id=8]

[node name="World" type="Node2D"]
script = ExtResource( 1 )

[node name="Background" type="Sprite" parent="."]
position = Vector2( 506.5, 304.5 )
scale = Vector2( 251.752, 148.82 )
texture = ExtResource( 2 )

[node name="Speed" type="Label" parent="."]
margin_left = 137.0
margin_top = 90.0
margin_right = 177.0
margin_bottom = 104.0
rect_scale = Vector2( 2, 2 )
custom_colors/font_color = Color( 0, 0, 0, 1 )
__meta__ = {
"_edit_use_anchors_": false
}

[node name="Gun" parent="." instance=ExtResource( 4 )]
position = Vector2( 80, 149 )

[node name="Electron" parent="." instance=ExtResource( 6 )]
position = Vector2( 131, 499 )

[node name="StartSound" type="AudioStreamPlayer" parent="."]
stream = ExtResource( 3 )

[node name="DeathSound" type="AudioStreamPlayer" parent="."]
stream = ExtResource( 5 )

[node name="WinSound" type="AudioStreamPlayer" parent="."]
stream = ExtResource( 7 )

[node name="FireSound" type="AudioStreamPlayer" parent="."]
stream = ExtResource( 8 )

[connection signal="fire" from="." to="." method="_on_World_fire"]
[connection signal="finished" from="WinSound" to="." method="_on_WinSound_finished"]
